tflearn
absl-py>=0.5.0
astor>=0.7.1
backcall>=0.1.0
bleach>=2.1.4
blinker>=1.4
cloudpickle>=0.5.6
colorama>=0.3.9
configparser>=3.5.0
cycler>=0.10.0
dask>=0.19.2
decorator>=4.3.0
defusedxml>=0.5.0
entrypoints>=0.2.3
gast>=0.2.0
grpcio>=1.15.0
h5py>=2.8.0
html5lib>=1.0.1
ipykernel>=4.9.0
ipython>=6.5.0
ipython-genutils>=0.2.0
ipywidgets>=7.4.2
jedi>=0.12.1
Jinja2>=2.10
jsonschema>=2.6.0
jupyter>=1.0.0
jupyter-client>=5.2.3
jupyter-console>=5.2.0
jupyter-core>=4.4.0
Keras>=2.2.2
Keras-Applications>=1.0.4
Keras-Preprocessing>=1.0.2
kiwisolver>=1.0.1
Markdown>=3.0
MarkupSafe>=1.0
matplotlib>=3.0.0
mistune>=0.8.3
nbconvert>=5.4.0
nbformat>=4.4.0
networkx>=2.2
nibabel>=2.3.0
notebook>=5.7.0
numpy>=1.14.5
opencv-python>=3.4.3.18
packaging>=17.1
pandas>=0.23.4
pandocfilters>=1.4.2
parso>=0.3.1
pickleshare>=0.7.4
Pillow>=5.2.0
prometheus-client>=0.3.1
prompt-toolkit>=1.0.15
protobuf>=3.6.1
Pygments>=2.2.0
pyparsing>=2.2.1
python-dateutil>=2.7.3
pytz>=2018.5
PyWavelets>=1.0.0
pywinpty>=0.5.4
PyYAML>=3.13
pyzmq>=17.1.2
qtconsole>=4.4.1
scikit-image>=0.14.0
scikit-learn>=0.19.2
scipy>=1.1.0
Send2Trash>=1.5.0
simplegeneric>=0.8.1
SimpleITK>=1.1.0
six>=1.11.0
tensorboard>=1.10.0
tensorflow-gpu>=1.10.0
termcolor>=1.1.0
terminado>=0.8.1
testpath>=0.3.1
toolz>=0.9.0
tornado>=5.1.1
tqdm>=4.26.0
traitlets>=4.3.2
wcwidth>=0.1.7
webencodings>=0.5.1
Werkzeug>=0.14.1
widgetsnbextension>=3.4.2
